^E:\UNI\INFECTION\SDL1\SDL1B\DEBUG\BACKGROUND.OBJ|E:\UNI\INFECTION\SDL1\SDL1B\DEBUG\BULLET.OBJ|E:\UNI\INFECTION\SDL1\SDL1B\DEBUG\CIRCLEVOL.OBJ|E:\UNI\INFECTION\SDL1\SDL1B\DEBUG\CLOCK.OBJ|E:\UNI\INFECTION\SDL1\SDL1B\DEBUG\COLLISION.OBJ|E:\UNI\INFECTION\SDL1\SDL1B\DEBUG\FPSCOUNTER.OBJ|E:\UNI\INFECTION\SDL1\SDL1B\DEBUG\GAMESCENE.OBJ|E:\UNI\INFECTION\SDL1\SDL1B\DEBUG\MAIN.OBJ|E:\UNI\INFECTION\SDL1\SDL1B\DEBUG\PLAYER.OBJ|E:\UNI\INFECTION\SDL1\SDL1B\DEBUG\PLAYERUPDATE.OBJ|E:\UNI\INFECTION\SDL1\SDL1B\DEBUG\POINT.OBJ|E:\UNI\INFECTION\SDL1\SDL1B\DEBUG\POINT2F.OBJ|E:\UNI\INFECTION\SDL1\SDL1B\DEBUG\POINT4F.OBJ|E:\UNI\INFECTION\SDL1\SDL1B\DEBUG\RECTVOL.OBJ|E:\UNI\INFECTION\SDL1\SDL1B\DEBUG\SMGAME.OBJ|E:\UNI\INFECTION\SDL1\SDL1B\DEBUG\SPLASH.OBJ|E:\UNI\INFECTION\SDL1\SDL1B\DEBUG\SPRITE.OBJ|E:\UNI\INFECTION\SDL1\SDL1B\DEBUG\STATICTEXT.OBJ|E:\UNI\INFECTION\SDL1\SDL1B\DEBUG\TEXTOBJECT.OBJ|E:\UNI\INFECTION\SDL1\SDL1B\DEBUG\VIRUS.OBJ|E:\UNI\INFECTION\SDL1\SDL1B\DEBUG\WAVES.OBJ
/OUT:"E:\UNI\INFECTION\SDL1\DEBUG\SDL1B.EXE" /INCREMENTAL /NOLOGO SDL2_TTF.LIB SDL2_IMAGE.LIB SDL2.LIB SDL2MAIN.LIB KERNEL32.LIB USER32.LIB GDI32.LIB WINSPOOL.LIB COMDLG32.LIB ADVAPI32.LIB SHELL32.LIB OLE32.LIB OLEAUT32.LIB UUID.LIB ODBC32.LIB ODBCCP32.LIB KERNEL32.LIB USER32.LIB GDI32.LIB WINSPOOL.LIB COMDLG32.LIB ADVAPI32.LIB SHELL32.LIB OLE32.LIB OLEAUT32.LIB UUID.LIB ODBC32.LIB ODBCCP32.LIB /MANIFEST /MANIFESTUAC:"level='asInvoker' uiAccess='false'" /manifest:embed /DEBUG:FASTLINK /PDB:"E:\UNI\INFECTION\SDL1\DEBUG\SDL1B.PDB" /SUBSYSTEM:WINDOWS /TLBID:1 /DYNAMICBASE /NXCOMPAT /IMPLIB:"E:\UNI\INFECTION\SDL1\DEBUG\SDL1B.LIB" /MACHINE:X86 DEBUG\BACKGROUND.OBJDEBUG\BULLET.OBJDEBUG\CIRCLEVOL.OBJDEBUG\CLOCK.OBJDEBUG\COLLISION.OBJDEBUG\FPSCOUNTER.OBJDEBUG\GAMESCENE.OBJDEBUG\MAIN.OBJDEBUG\PLAYER.OBJDEBUG\PLAYERUPDATE.OBJDEBUG\POINT.OBJDEBUG\POINT2F.OBJDEBUG\POINT4F.OBJDEBUG\RECTVOL.OBJDEBUG\SMGAME.OBJDEBUG\SPLASH.OBJDEBUG\SPRITE.OBJDEBUG\STATICTEXT.OBJDEBUG\TEXTOBJECT.OBJDEBUG\VIRUS.OBJDEBUG\WAVES.OBJ
^D:\UNI\GAME SYSTEM FUNDAMENTALS\SDL1\INFECTION\SDL1\SDL1B\DEBUG\BACKGROUND.OBJ|D:\UNI\GAME SYSTEM FUNDAMENTALS\SDL1\INFECTION\SDL1\SDL1B\DEBUG\BULLET.OBJ|D:\UNI\GAME SYSTEM FUNDAMENTALS\SDL1\INFECTION\SDL1\SDL1B\DEBUG\CIRCLEVOL.OBJ|D:\UNI\GAME SYSTEM FUNDAMENTALS\SDL1\INFECTION\SDL1\SDL1B\DEBUG\CLOCK.OBJ|D:\UNI\GAME SYSTEM FUNDAMENTALS\SDL1\INFECTION\SDL1\SDL1B\DEBUG\COLLISION.OBJ|D:\UNI\GAME SYSTEM FUNDAMENTALS\SDL1\INFECTION\SDL1\SDL1B\DEBUG\FPSCOUNTER.OBJ|D:\UNI\GAME SYSTEM FUNDAMENTALS\SDL1\INFECTION\SDL1\SDL1B\DEBUG\GAMESCENE.OBJ|D:\UNI\GAME SYSTEM FUNDAMENTALS\SDL1\INFECTION\SDL1\SDL1B\DEBUG\MAIN.OBJ|D:\UNI\GAME SYSTEM FUNDAMENTALS\SDL1\INFECTION\SDL1\SDL1B\DEBUG\PLAYER.OBJ|D:\UNI\GAME SYSTEM FUNDAMENTALS\SDL1\INFECTION\SDL1\SDL1B\DEBUG\PLAYERUPDATE.OBJ|D:\UNI\GAME SYSTEM FUNDAMENTALS\SDL1\INFECTION\SDL1\SDL1B\DEBUG\POINT.OBJ|D:\UNI\GAME SYSTEM FUNDAMENTALS\SDL1\INFECTION\SDL1\SDL1B\DEBUG\POINT2F.OBJ|D:\UNI\GAME SYSTEM FUNDAMENTALS\SDL1\INFECTION\SDL1\SDL1B\DEBUG\POINT4F.OBJ|D:\UNI\GAME SYSTEM FUNDAMENTALS\SDL1\INFECTION\SDL1\SDL1B\DEBUG\RECTVOL.OBJ|D:\UNI\GAME SYSTEM FUNDAMENTALS\SDL1\INFECTION\SDL1\SDL1B\DEBUG\SMGAME.OBJ|D:\UNI\GAME SYSTEM FUNDAMENTALS\SDL1\INFECTION\SDL1\SDL1B\DEBUG\SPLASH.OBJ|D:\UNI\GAME SYSTEM FUNDAMENTALS\SDL1\INFECTION\SDL1\SDL1B\DEBUG\SPRITE.OBJ|D:\UNI\GAME SYSTEM FUNDAMENTALS\SDL1\INFECTION\SDL1\SDL1B\DEBUG\STATICTEXT.OBJ|D:\UNI\GAME SYSTEM FUNDAMENTALS\SDL1\INFECTION\SDL1\SDL1B\DEBUG\TEXTOBJECT.OBJ|D:\UNI\GAME SYSTEM FUNDAMENTALS\SDL1\INFECTION\SDL1\SDL1B\DEBUG\VIRUS.OBJ|D:\UNI\GAME SYSTEM FUNDAMENTALS\SDL1\INFECTION\SDL1\SDL1B\DEBUG\WAVES.OBJ
/OUT:"D:\UNI\GAME SYSTEM FUNDAMENTALS\SDL1\INFECTION\SDL1\DEBUG\SDL1B.EXE" /INCREMENTAL /NOLOGO SDL2_MIXER.LIB SDL2_TTF.LIB SDL2_IMAGE.LIB SDL2.LIB SDL2MAIN.LIB KERNEL32.LIB USER32.LIB GDI32.LIB WINSPOOL.LIB COMDLG32.LIB ADVAPI32.LIB SHELL32.LIB OLE32.LIB OLEAUT32.LIB UUID.LIB ODBC32.LIB ODBCCP32.LIB KERNEL32.LIB USER32.LIB GDI32.LIB WINSPOOL.LIB COMDLG32.LIB ADVAPI32.LIB SHELL32.LIB OLE32.LIB OLEAUT32.LIB UUID.LIB ODBC32.LIB ODBCCP32.LIB /MANIFEST /MANIFESTUAC:"level='asInvoker' uiAccess='false'" /manifest:embed /DEBUG:FASTLINK /PDB:"D:\UNI\GAME SYSTEM FUNDAMENTALS\SDL1\INFECTION\SDL1\DEBUG\SDL1B.PDB" /SUBSYSTEM:WINDOWS /TLBID:1 /DYNAMICBASE /NXCOMPAT /IMPLIB:"D:\UNI\GAME SYSTEM FUNDAMENTALS\SDL1\INFECTION\SDL1\DEBUG\SDL1B.LIB" /MACHINE:X86 DEBUG\BACKGROUND.OBJDEBUG\BULLET.OBJDEBUG\CIRCLEVOL.OBJDEBUG\CLOCK.OBJDEBUG\COLLISION.OBJDEBUG\FPSCOUNTER.OBJDEBUG\GAMESCENE.OBJDEBUG\MAIN.OBJDEBUG\PLAYER.OBJDEBUG\PLAYERUPDATE.OBJDEBUG\POINT.OBJDEBUG\POINT2F.OBJDEBUG\POINT4F.OBJDEBUG\RECTVOL.OBJDEBUG\SMGAME.OBJDEBUG\SPLASH.OBJDEBUG\SPRITE.OBJDEBUG\STATICTEXT.OBJDEBUG\TEXTOBJECT.OBJDEBUG\VIRUS.OBJDEBUG\WAVES.OBJ
^C:\USERS\WILLH\ONEDRIVE\DESKTOP\NEW FOLDER\INFECTION2\SDL1\SDL1B\DEBUG\BACKGROUND.OBJ|C:\USERS\WILLH\ONEDRIVE\DESKTOP\NEW FOLDER\INFECTION2\SDL1\SDL1B\DEBUG\BULLET.OBJ|C:\USERS\WILLH\ONEDRIVE\DESKTOP\NEW FOLDER\INFECTION2\SDL1\SDL1B\DEBUG\CIRCLEVOL.OBJ|C:\USERS\WILLH\ONEDRIVE\DESKTOP\NEW FOLDER\INFECTION2\SDL1\SDL1B\DEBUG\CLOCK.OBJ|C:\USERS\WILLH\ONEDRIVE\DESKTOP\NEW FOLDER\INFECTION2\SDL1\SDL1B\DEBUG\COLLISION.OBJ|C:\USERS\WILLH\ONEDRIVE\DESKTOP\NEW FOLDER\INFECTION2\SDL1\SDL1B\DEBUG\FPSCOUNTER.OBJ|C:\USERS\WILLH\ONEDRIVE\DESKTOP\NEW FOLDER\INFECTION2\SDL1\SDL1B\DEBUG\GAMESCENE.OBJ|C:\USERS\WILLH\ONEDRIVE\DESKTOP\NEW FOLDER\INFECTION2\SDL1\SDL1B\DEBUG\MAIN.OBJ|C:\USERS\WILLH\ONEDRIVE\DESKTOP\NEW FOLDER\INFECTION2\SDL1\SDL1B\DEBUG\PLAYER.OBJ|C:\USERS\WILLH\ONEDRIVE\DESKTOP\NEW FOLDER\INFECTION2\SDL1\SDL1B\DEBUG\PLAYERUPDATE.OBJ|C:\USERS\WILLH\ONEDRIVE\DESKTOP\NEW FOLDER\INFECTION2\SDL1\SDL1B\DEBUG\POINT.OBJ|C:\USERS\WILLH\ONEDRIVE\DESKTOP\NEW FOLDER\INFECTION2\SDL1\SDL1B\DEBUG\POINT2F.OBJ|C:\USERS\WILLH\ONEDRIVE\DESKTOP\NEW FOLDER\INFECTION2\SDL1\SDL1B\DEBUG\POINT4F.OBJ|C:\USERS\WILLH\ONEDRIVE\DESKTOP\NEW FOLDER\INFECTION2\SDL1\SDL1B\DEBUG\RECTVOL.OBJ|C:\USERS\WILLH\ONEDRIVE\DESKTOP\NEW FOLDER\INFECTION2\SDL1\SDL1B\DEBUG\SMGAME.OBJ|C:\USERS\WILLH\ONEDRIVE\DESKTOP\NEW FOLDER\INFECTION2\SDL1\SDL1B\DEBUG\SPLASH.OBJ|C:\USERS\WILLH\ONEDRIVE\DESKTOP\NEW FOLDER\INFECTION2\SDL1\SDL1B\DEBUG\SPRITE.OBJ|C:\USERS\WILLH\ONEDRIVE\DESKTOP\NEW FOLDER\INFECTION2\SDL1\SDL1B\DEBUG\STATICTEXT.OBJ|C:\USERS\WILLH\ONEDRIVE\DESKTOP\NEW FOLDER\INFECTION2\SDL1\SDL1B\DEBUG\TEXTOBJECT.OBJ|C:\USERS\WILLH\ONEDRIVE\DESKTOP\NEW FOLDER\INFECTION2\SDL1\SDL1B\DEBUG\VIRUS.OBJ|C:\USERS\WILLH\ONEDRIVE\DESKTOP\NEW FOLDER\INFECTION2\SDL1\SDL1B\DEBUG\WAVES.OBJ
/OUT:"C:\USERS\WILLH\ONEDRIVE\DESKTOP\NEW FOLDER\INFECTION2\SDL1\DEBUG\SDL1B.EXE" /INCREMENTAL /NOLOGO SDL2_MIXER.LIB SDL2_TTF.LIB SDL2_IMAGE.LIB SDL2.LIB SDL2MAIN.LIB KERNEL32.LIB USER32.LIB GDI32.LIB WINSPOOL.LIB COMDLG32.LIB ADVAPI32.LIB SHELL32.LIB OLE32.LIB OLEAUT32.LIB UUID.LIB ODBC32.LIB ODBCCP32.LIB KERNEL32.LIB USER32.LIB GDI32.LIB WINSPOOL.LIB COMDLG32.LIB ADVAPI32.LIB SHELL32.LIB OLE32.LIB OLEAUT32.LIB UUID.LIB ODBC32.LIB ODBCCP32.LIB /MANIFEST /MANIFESTUAC:"level='asInvoker' uiAccess='false'" /manifest:embed /DEBUG:FASTLINK /PDB:"C:\USERS\WILLH\ONEDRIVE\DESKTOP\NEW FOLDER\INFECTION2\SDL1\DEBUG\SDL1B.PDB" /SUBSYSTEM:WINDOWS /TLBID:1 /DYNAMICBASE /NXCOMPAT /IMPLIB:"C:\USERS\WILLH\ONEDRIVE\DESKTOP\NEW FOLDER\INFECTION2\SDL1\DEBUG\SDL1B.LIB" /MACHINE:X86 DEBUG\BACKGROUND.OBJDEBUG\BULLET.OBJDEBUG\CIRCLEVOL.OBJDEBUG\CLOCK.OBJDEBUG\COLLISION.OBJDEBUG\FPSCOUNTER.OBJDEBUG\GAMESCENE.OBJDEBUG\MAIN.OBJDEBUG\PLAYER.OBJDEBUG\PLAYERUPDATE.OBJDEBUG\POINT.OBJDEBUG\POINT2F.OBJDEBUG\POINT4F.OBJDEBUG\RECTVOL.OBJDEBUG\SMGAME.OBJDEBUG\SPLASH.OBJDEBUG\SPRITE.OBJDEBUG\STATICTEXT.OBJDEBUG\TEXTOBJECT.OBJDEBUG\VIRUS.OBJDEBUG\WAVES.OBJ
